{
  "cviceni": {
    "version": {
      "global": "<%= version %>",
      "content": 1
    },
    "katalog": [
      "test",
      "public"
    ],
    "language": "pl",
    "slug": "powinien-ukleknac-pl",
    "nazev": "Powinien uklęknąć?",
    "autor": [
      "Kamil Činátl"
    ],
    "klicovaSlova": {
      "rvp": [
        "konsekwencje drugiej wojny światowej",
        "antysemityzm"
      ],
      "koncept": [
        "kultura upamiętniania",
        "symbole"
      ],
      "b4": [
        "stosunek do przeszłości"
      ],
      "historylab": [
        "dyskutujemy"
      ]
    },
    "casovaOsa": {
      "roky": [
        1970
      ],
      "epochy": [
        {
          "refId": "czech",
          "obdobi": []
        },
        {
          "refId": "world",
          "obdobi": [
            "Zimna wojna i upadek imperiów kolonialnych"
          ]
        }
      ],
      "show": false
    },
    "anotace": {
      "ucitel": "Ćwiczenie skupia się na symbolicznym uklęknięciu Willy'ego Brandta przed pomnikiem powstania w getcie warszawskim. Uczniowie korzystają z różnych źródeł, aby dyskutować o tym, czy w 1970 roku kanclerz Niemiec Zachodnich powinien czy nie powinien uklęknąć przed pomnikiem.",
      "verejna": "Kanclerz Niemiec w 1970 roku klęczy przed pomnikiem ofiar holocaustu w Warszawie. Jak mogli ten gest postrzegać Niemcy, Polacy czy Żydzi? Spróbuj przy pomocy źródeł argumentować, czy Willy Brandt powinien czy nie powinien  uklęknąć."
    },
    "trvani": 35,
    "obtiznost": "średni",
    "funkce": [
      "lupa",
      "svg",
      "text"
    ],
    "pdf": {
      "doporucenyPostup": "powinien-ukleknac-pl.pdf"
    },
    "uvodniObrazek": "powinien-ukleknac-pl/pic-01-1280w.jpg",
    "id": 206,
    "color": {
      "rgb": {
        "r": 112,
        "g": 112,
        "b": 112
      },
      "hsv": {
        "h": 0,
        "s": 0,
        "v": 43.92
      }
    },
    "mobileData": {
      "mobileFriendly": 2,
      "touch": 2,
      "smallScreen": 2,
      "tabletScreen": 2
    }
  },
  "slajd": [
    {
      "zadani": {
        "hlavni": "Obejrzyj zdjęcie.",
        "rozsirujici": ""
      },
      "napoveda": {
        "aktivity": [
          "lupa"
        ],
        "text": "Po kliknięciu lewym przyciskiem myszy, otwiera się lupa."
      },
      "prameny": [
        "powinien-ukleknac-pl/pic-01-1280w.jpg"
      ],
      "popisky": [
        "Zachodnioniemiecki Kanclerz Willy Brandt w 1970 roku podczas wizyty w Warszawie uklęknął przed Pomnikiem Bohaterów Getta. Gest Brandta wzbudził duże zainteresowanie i wywołał dyskusje nie tylko w Niemczech i Polsce. Foto Sven Simon. Źródło: ČTK"
      ]
    },
    {
      "class": "half-slide-previous",
      "zadani": {
        "hlavni": "Zaznacz na zdjęciu ważne elementy, mogące pomóc określić, co się na nim dzieje.",
        "rozsirujici": ""
      },
      "napoveda": {
        "aktivity": [
          "svg"
        ],
        "text": "Klikając lewy przycisk myszy zaznaczasz punkt. Klikając w punkt prawym przyciskiem myszy otwierasz menu z ofertą poleceń: zmień kolor punktu, (T) dodaj tekst, (X) usuń obiekt."
      },
      "svg": {
        "soubory": [
          {
            "id": "svg-1",
            "soubor": "powinien-ukleknac-pl/pic-01-1024w.jpg",
            "funkce": [
              "text",
              "znacky"
            ]
          }
        ]
      },
      "popisky": [
        "Zachodnioniemiecki Kanclerz Willy Brandt w 1970 roku podczas wizyty w Warszawie uklęknął przed Pomnikiem Bohaterów Getta. Gest Brandta wzbudził duże zainteresowanie i wywołał dyskusje nie tylko w Niemczech i Polsce. Foto Sven Simon. Źródło: ČTK"
      ]
    },
    {
      "class": [
        "half-slide-active"
      ],
      "zadani": {
        "hlavni": "Co się dzieje na zdjęciu?",
        "rozsirujici": ""
      },
      "napoveda": {
        "aktivity": [
          "text"
        ],
        "text": "W polu tekstowym wpisz odpowiedź na pytanie lub inny komentarz (zgodnie z poleceniem)."
      },
      "uzivatelskyText": {
        "otazky": [
          {
            "id": "otazka-1",
            "zadani": "Kim są ludzie na zdjęciu i co robią?",
            "instrukce": "Myślę, że…",
            "minDelka": 2,
            "maxDelka": 400
          }
        ]
      }
    },
    {
      "class": [
        "half-slide-previous"
      ],
      "zadani": {
        "hlavni": "Przeanalizuj kolejne źródła. Na zdjęciu zaznacz nowe informacje kolorem czerwonym.",
        "rozsirujici": ""
      },
      "napoveda": {
        "aktivity": [
          "lupa",
          "svg"
        ],
        "text": "Po kliknięciu lewym przyciskiem myszy, otwiera się lupa."
      },
      "svg": {
        "nastaveni": {
          "layout": "horizontalni"
        },
        "galerie": [
          {
            "soubor": "powinien-ukleknac-pl/pic-03-1024h.jpg",
            "popisek": "Okładka niemieckiego magazynu Der Spiegel z 14 grudnia 1970 roku. Nagłówek brzmi: Ankieta Spiegla: Powinien Brandt uklęknąć? Źródło: Der Spiegel"
          },
          {
            "soubor": "powinien-ukleknac-pl/pic-04-1280w.jpg",
            "popisek": "Dwaj ukraińscy członkowie SS nad ciałami Żydów zamordowanych podczas powstania w getcie warszawskim. Źródło: Muzeum Getta Warszawskiego"
          },
          {
            "soubor": "powinien-ukleknac-pl/pic-02-1280w.jpg",
            "popisek": "Nathan Rapoport: Pomnik Bohaterów Getta. Pomnik przypomina powstanie w getcie warszawskim w 1943 roku. Powstał w miejscu dawnego getta już w 1948 roku. Napis na pomniku: „Naród żydowski swym bojownikom i męczennikom”. Foto: Adrian Grycuk. Źródło: Wikimedia Commons"
          },
          {
            "soubor": "powinien-ukleknac-pl/pic-00-1024h.jpg",
            "popisek": "Lucie Suchá: A Německo pokleklo před Polskem. Brandtovo gesto vstoupilo do dějin. (w tłumaczeniu: I Niemcy uklękły przed Polską. Gest Brandta przeszedł do historii.) Źródło: iDnes.cz, 8 grudnia 2010 r."
          }
        ],
        "soubory": [
          {
            "id": "svg-2",
            "soubor": "powinien-ukleknac-pl/pic-01-1024w.jpg",
            "funkce": [
              "text",
              "znacky"
            ],
            "barvy": [
              "red"
            ],
            "duplikovat": [
              "svg-1"
            ]
          }
        ]
      },
      "popisky": [
        ""
      ]
    },
    {
      "class": [
        "half-slide-active"
      ],
      "zadani": {
        "hlavni": "Sformułuj argumenty za i przeciw.",
        "rozsirujici": ""
      },
      "napoveda": {
        "aktivity": [
          "text"
        ],
        "text": "W polu tekstowym wpisz odpowiedź na pytanie lub inny komentarz (zgodnie z poleceniem)."
      },
      "uzivatelskyText": {
        "otazky": [
          {
            "id": "otazka-2",
            "zadani": "Dlaczego powinien uklęknąć?",
            "instrukce": "Myślę, że…",
            "minDelka": 10,
            "optimum": 150,
            "maxDelka": 400
          },
          {
            "id": "otazka-3",
            "zadani": "Dlaczego nie powinien uklęknąć?",
            "instrukce": "Myślę, że…",
            "minDelka": 10,
            "optimum": 150,
            "maxDelka": 400
          }
        ]
      }
    }
  ]
}