{
  "cviceni": {
    "version": {
      "global": "<%= version %>",
      "content": 1
    },
    "katalog": [
      "public"
    ],
    "language": "cs",
    "slug": "proc-fotili-vlajku-znovu",
    "nazev": "Proč fotili vlajku znovu?",
    "autor": [
      "Kamil Činátl"
    ],
    "klicovaSlova": {
      "rvp": [
        "druhá světová válka"
      ],
      "koncept": [
        "propaganda",
        "symboly"
      ],
      "b4": [
        "vztah k minulosti"
      ],
      "historylab": [
        "porovnáváme prameny"
      ]
    },
    "casovaOsa": {
      "roky": [
        1945
      ],
      "epochy": [
        {
          "refId": "czech",
          "obdobi": []
        },
        {
          "refId": "world",
          "obdobi": [
            "druhá světová válka"
          ]
        }
      ],
      "show": true
    },
    "anotace": {
      "ucitel": "Cvičení pracuje s dvěma různými fotografiemi vztyčování americké vlajky v rámci bojů o japonský ostrov Iwodžima v roce 1945. Žáci srovnávají verze vztyčování a s pomocí dalších pramenů pátrají po důvodech přefocení výjevu. Uvědomují si propagandistické funkce symbolických zobrazení války.",
      "verejna": "Znáte jednu z nejslavnějších fotek druhé světové války? Víte, že ji museli přefotit? Zkuste vypátrat, proč se to stalo. Za snímkem se skrývají zajímavé věci."
    },
    "trvani": 35,
    "obtiznost": "střední",
    "funkce": [
      "lupa",
      "cteni",
      "text",
      "svg"
    ],
    "pdf": {
      "doporucenyPostup": "proc-fotili-vlajku-znovu.pdf"
    },
    "uvodniObrazek": "proc-fotili-vlajku-znovu/pic-01-1280w.jpg",
    "id": 97,
    "color": {
      "rgb": {
        "r": 183,
        "g": 183,
        "b": 183
      },
      "hsv": {
        "h": 0,
        "s": 0,
        "v": 71.76
      }
    },
    "mobileData": {
      "mobileFriendly": 1,
      "touch": 2,
      "smallScreen": 1,
      "tabletScreen": 2
    }
  },
  "slajd": [
    {
      "zadani": {
        "hlavni": "Na fotografiích je stejné místo. Prohlédněte si oba snímky.",
        "rozsirujici": ""
      },
      "napoveda": {
        "aktivity": [
          "lupa"
        ],
        "text": [
          "Kliknutím levého tlačítka do obrazu a jeho podržením lupa přiblíží část obrazu ve výřezu."
        ]
      },
      "prameny": [
        "proc-fotili-vlajku-znovu/pic-00-1024h.jpg",
        "proc-fotili-vlajku-znovu/pic-01-1280w.jpg"
      ],
      "popisky": [
        "Hora Suribači na ostrově Iwodžima, 23. února 1945, kolem 10:30. Foto Louis Lowery. Zdroj: Naval History and Heritage Command",
        "Hora Suribači na ostrově Iwodžima, 23. února 1945, kolem poledne. Foto Joe Rosenthal. Zdroj: ČTK"
      ]
    },
    {
      "zadani": {
        "hlavni": "V čem se snímky vztyčování vlajky liší?",
        "rozsirujici": "Červeně ve fotografiích označte rozdíly a modře podobnosti. Popište označené body."
      },
      "napoveda": {
        "aktivity": [
          "svg"
        ],
        "text": [
          "Kliknutím na snímek levým tlačítkem myši označujete bod. Nakliknutím na bod pravým tlačítkem otevřete menu s nabídkou úkonů: změnit barvu bodu, (T) doplnit textový komentář, (X) smazat nakliknutý objekt."
        ]
      },
      "svg": {
        "soubory": [
          {
            "id": "svg-1",
            "soubor": "proc-fotili-vlajku-znovu/pic-00-1024h.jpg",
            "funkce": [
              "text",
              "znacky"
            ],
            "barvy": [
              "blue",
              "red"
            ]
          },
          {
            "id": "svg-2",
            "soubor": "proc-fotili-vlajku-znovu/pic-01-1024w.jpg",
            "funkce": [
              "text",
              "znacky"
            ],
            "barvy": [
              "blue",
              "red"
            ]
          }
        ]
      },
      "popisky": [
        "Hora Suribači na ostrově Iwodžima, 23. února 1945, kolem 10:30. Foto Louis Lowery. Zdroj: Naval History and Heritage Command",
        "Hora Suribači na ostrově Iwodžima, 23. února 1945, kolem poledne. Foto Joe Rosenthal. Zdroj: ČTK"
      ]
    },
    {
      "zadani": {
        "hlavni": "Odpovězte na otázku.",
        "rozsirujici": ""
      },
      "napoveda": {
        "aktivity": [
          "text"
        ],
        "text": "Do boxu pro text zapisujete odpověď na otázku, nebo jiný komentář (dle zadání)."
      },
      "uzivatelskyText": {
        "layout": "velka-galerie",
        "galerie": [
          {
            "typ": "svg",
            "objekt": {
              "id": "svg-3",
              "soubor": "proc-fotili-vlajku-znovu/pic-00-1024h.jpg",
              "duplikovat": [
                "svg-1"
              ]
            }
          },
          {
            "typ": "svg",
            "objekt": {
              "id": "svg-4",
              "soubor": "proc-fotili-vlajku-znovu/pic-01-1024w.jpg",
              "duplikovat": [
                "svg-2"
              ]
            }
          }
        ],
        "otazky": [
          {
            "id": "text-1",
            "zadani": "Proč fotili vztyčování vlajky?",
            "instrukce": "Myslím si, že…",
            "minDelka": 10,
            "maxDelka": 400
          }
        ]
      }
    },
    {
      "class": [
        "half-slide-previous"
      ],
      "zadani": {
        "hlavni": "Prozkoumejte další prameny. Informace, které osvětlují, proč se proslavil až druhý snímek, doplňte jako textové komentáře do fotografie.",
        "rozsirujici": ""
      },
      "napoveda": {
        "aktivity": [
          "svg"
        ],
        "text": "Tahem myši levým tlačítkem kreslíte do obrazu. Nakliknutím na nakreslený tvar pravým tlačítkem otevřete menu s nabídkou úkonů: změnit barvu tvaru, (T) doplnit textový komentář, (X) smazat nakliknutý objekt."
      },
      "svg": {
        "nastaveni": {
          "layout": "velka-galerie"
        },
        "galerie": [
          {
            "soubor": "proc-fotili-vlajku-znovu/video-00.mp4",
            "popisek": "Vztyčování vlajky na hoře Suribači, 23. února 1945. Kamera Bill Genaust. Zdroj: Internet Archive"
          },
          {
            "soubor": "proc-fotili-vlajku-znovu/pic-02-1024h.jpg",
            "popisek": "Plakát sedmé válečné půjčky. Cecil C. Beall: Nyní všichni společně, 1945. Zdroj: Library of Congress USA"
          },
          {
            "soubor": "proc-fotili-vlajku-znovu/pic-03-1280w.jpg",
            "popisek": "Pomník americké námořní pěchoty v Arlingtonu z roku 1954. Zdroj: Famartin, [CC BY-SA 4.0 (https://creativecommons.org/licenses/by-sa/4.0)]"
          },
          {
            "soubor": "proc-fotili-vlajku-znovu/pic-04-1024h.jpg",
            "popisek": "Petr Štefan: Do dějin vstoupilo až druhé vztyčení vlajky, 21. srpna 2010. Zdroj: iDNES.cz"
          }
        ],
        "soubory": [
          {
            "id": "svg-5",
            "soubor": "proc-fotili-vlajku-znovu/pic-01-1024w.jpg",
            "duplikovat": [
              "svg-2"
            ],
            "funkce": [
              "text",
              "znacky"
            ],
            "barvy": [
              "orange"
            ]
          }
        ]
      }
    },
    {
      "class": [
        "half-slide-active"
      ],
      "zadani": {
        "hlavni": "Odpovězte na otázky.",
        "rozsirujici": ""
      },
      "napoveda": {
        "aktivity": [
          "text"
        ],
        "text": "Do boxu pro text zapisujete odpověď na otázku, nebo jiný komentář (dle zadání)."
      },
      "uzivatelskyText": {
        "otazky": [
          {
            "id": "text-2",
            "zadani": "Proč se proslavil až druhý snímek?",
            "instrukce": "Myslím si, že…",
            "minDelka": 10,
            "optimum": 150,
            "maxDelka": 400
          },
          {
            "id": "text-3",
            "zadani": "Na co byste se zeptali fotografů?",
            "instrukce": "Zeptal bych se na…",
            "minDelka": 10,
            "optimum": 150,
            "maxDelka": 400
          }
        ]
      }
    }
  ]
}