{
  "cviceni": {
    "version": {
      "global": "<%= version %>",
      "content": 1
    },
    "katalog": [
      "test",
      "public"
    ],
    "language": "pl",
    "slug": "jak-obchodzili-swieto-panstwowe-pl",
    "nazev": "Jak obchodzili święto państwowe?",
    "autor": [
      "Jaroslav Najbert"
    ],
    "klicovaSlova": {
      "rvp": [
        "Czechosłowacja w latach 80."
      ],
      "koncept": [
        "propaganda",
        "historia w przestrzeni publicznej"
      ],
      "b4": [
        "ówczesne perpektywy"
      ],
      "historylab": [
        "formułujemy i weryfikujemy hipotezę"
      ]
    },
    "casovaOsa": {
      "roky": [
        1980
      ],
      "epochy": [
        {
          "refId": "czech",
          "obdobi": [
            "Normalizacja"
          ]
        },
        {
          "refId": "world",
          "obdobi": []
        }
      ],
      "show": false
    },
    "anotace": {
      "ucitel": "Ćwiczenie skupia się na analizie zdjęcia z obchodów majowych w 1980 roku we wschodnioczeskim mieście Polička. Uczniowie opisują poszczególne symbole oraz elementy dekoracji i zdają sobie sprawę, że szczegółowa analiza może ułatwić zrozumienie przedstawionych uroczystości. Zapoznają się z formą i funkcją społeczną obchodów w latach normalizacji. Swoje spostrzeżenia mogą w nawiązującym działaniu porównać z historią rodziny lub szkoły.",
      "verejna": "Lubicie uroczystości? Zapraszamy na jedną z nich! Przyjrzyjcie się uroczystym dekoracjom, dowiedzcie się, kto był obecny i dostrzeżcie sens całej uroczystości. Macie kolejne pytania? Świetnie!"
    },
    "trvani": 25,
    "obtiznost": "niski",
    "funkce": [
      "lupa",
      "text",
      "svg",
      "kresleni"
    ],
    "pdf": {
      "doporucenyPostup": "jak-obchodzili-swieto-panstwowe-pl.pdf"
    },
    "uvodniObrazek": "jak-obchodzili-swieto-panstwowe-pl/pic-00-1280w.jpg",
    "id": 188,
    "color": {
      "rgb": {
        "r": 144,
        "g": 145,
        "b": 141
      },
      "hsv": {
        "h": 75,
        "s": 2.76,
        "v": 56.86
      }
    },
    "mobileData": {
      "mobileFriendly": 2,
      "touch": 2,
      "smallScreen": 2,
      "tabletScreen": 2
    }
  },
  "slajd": [
    {
      "zadani": {
        "hlavni": "Obejrzyj zdjęcie.",
        "rozsirujici": ""
      },
      "napoveda": {
        "aktivity": [
          "lupa"
        ],
        "text": "Po kliknięciu lewym przyciskiem myszy, otwiera się lupa."
      },
      "prameny": [
        "jak-obchodzili-swieto-panstwowe-pl/pic-00-1280w.jpg"
      ]
    },
    {
      "class": [
        "half-slide-previous"
      ],
      "zadani": {
        "hlavni": "Zaznacz na zdjęciu ważne elementy i opisz je.",
        "rozsirujici": ""
      },
      "napoveda": {
        "aktivity": [
          "svg"
        ],
        "text": "Ruchem myszy lewym przyciskiem rysujesz na zdjęciu. Klikając prawym przyciskiem myszy, otwierasz menu z ofertą poleceń: zmień kolor oznakowania, (T) dodaj tekst, (X) usuń."
      },
      "svg": {
        "soubory": [
          {
            "id": "svg-1",
            "soubor": "jak-obchodzili-swieto-panstwowe-pl/pic-00-1280w.jpg",
            "funkce": [
              "text",
              "kresleni"
            ]
          }
        ]
      },
      "popisky": [
        "Ratusz miasta Polička udekorowany z okazji święta państwowego w 1980 roku. Źródło: Archiwum Biblioteki Miejskiej w Poličce"
      ]
    },
    {
      "class": [
        "half-slide-active"
      ],
      "zadani": {
        "hlavni": "Kto uczestniczył w obchodach święta państwowego?",
        "rozsirujici": ""
      },
      "napoveda": {
        "aktivity": [
          "text"
        ],
        "text": "Do pola tekstowego wpisz odpowiedź na pytanie lub inny komentarz (zgodnie z poleceniem)."
      },
      "uzivatelskyText": {
        "otazky": [
          {
            "id": "otazka-1",
            "zadani": "",
            "instrukce": "Myślę, że…",
            "minDelka": 10,
            "maxDelka": 400
          }
        ]
      }
    },
    {
      "zadani": {
        "hlavni": "Odpowiedz na pytania.",
        "rozsirujici": ""
      },
      "napoveda": {
        "aktivity": [
          "text"
        ],
        "text": "Do pola tekstowego wpisz odpowiedź na pytanie lub inny komentarz (zgodnie z poleceniem)."
      },
      "uzivatelskyText": {
        "otazky": [
          {
            "id": "otazka-2",
            "zadani": "Jak myślisz, jaki był sens obchodów i dlaczego ludzie w nich uczestniczyli?",
            "instrukce": "Myślę, że…",
            "minDelka": 10,
            "maxDelka": 400
          },
          {
            "id": "otazka-3",
            "zadani": "Czego jeszcze chciałbyś/chciałabyś się o zdjęciu lub wydarzeniu dowiedzieć?",
            "instrukce": "Myślę, że…",
            "minDelka": 10,
            "maxDelka": 400
          }
        ]
      }
    }
  ]
}