{
  "cviceni": {
    "version": {
      "global": "<%= version %>",
      "content": 1
    },
    "katalog": ["test"],
    "isEvaluating": 1,
    "isHidden": true,
    "language": "cs",
    "slug": "jak-jsem-na-tom-porovnavame-prameny",
    "nazev": "Jak jsem na tom? Porovnáváme prameny",
    "autor": [""],
    "klicovaSlova": {
      "rvp": [],
      "koncept": [],
      "b4": [],
      "historylab": []
    },
    "casovaOsa": {
      "roky": [],
      "epochy": [
        {
          "refId": "czech",
          "obdobi": []
        },
        {
          "refId": "world",
          "obdobi": []
        }
      ]
    },
    "anotace": {
      "ucitel": "",
      "verejna": "Zkuste si (sami) zhodnotit, jak vám předcházející cvičení šlo. Zamyslete se nad tím, co vám při práci pomohlo a kde jste naopak tápali, využijte prostor pro poznámky. Vaše odpovědi nebude nikdo hodnotit."
    },
    "trvani": 15,
    "obtiznost": "",
    "funkce": ["lupa", "cteni", "text"],
    "pdf": {
      "doporucenyPostup": "autoevaluacni-jak-jsem-na-tom-porovnavame-prameny.pdf"
    },
    "uvodniObrazek": "",
    "id": 137
  },
  "slajd": [
    {
      "zadani": {
        "hlavni": "Co mi pomohlo při porovnávání pramenů?",
        "rozsirujici": ""
      },
      "napoveda": {
        "aktivity": ["word-cloud"],
        "text": "Klikáním na znaménka -/+ zmenšujte či zdůrazňujte důležitost."
      },
      "klicovaSlova": {
        "klicovaSlova": [
          {
            "id": "klicova-slova-1",
            "funkce": "wordcloud",
            "tagy": [
              {
                "text": "vyznačit rozdíly dvěma barvami"
              },
              {
                "text": "pečlivě popsat rozdíly mezi prameny"
              },
              {
                "text": "diskuse se spolužákem nebo ve třídě"
              },
              {
                "text": "přečíst si popisky k pramenům"
              },
              {
                "text": "vyhledat si informace mimo cvičení (např. na internetu)"
              },
              {
                "text": "moje předchozí znalost tématu"
              }
            ]
          }
        ]
      }
    },
    {
      "zadani": {
        "hlavni": "Zaškrtněte tvrzení, se kterými souhlasíte.",
        "rozsirujici": "Porovnávání pramenů je důležité, protože..."
      },
      "napoveda": {
        "aktivity": ["vyber"],
        "text": "Výběr provedete kliknutím na položku."
      },
      "vyber": {
        "id": "vyber-1",
        "nastaveni": {
          "layout": "vertikalni",
          "viceOdpovedi": true,
          "disableFeedback": true
        },
        "objekty": [
          {
            "medium": "text",
            "objekt": "pomáhá zviditelnit rozdíly v životě lidí nebo vzhledu konkrétního místa v různých dobách"
          },
          {
            "medium": "text",
            "objekt": "podněcuje kladení otázek"
          },
          {
            "medium": "text",
            "objekt": "pomáhá vnímat rozdílné pohledy na konkrétní událost nebo situaci"
          },
          {
            "medium": "text",
            "objekt": "pomůže určit, který pramen je pravdivější"
          },
          {
            "medium": "text",
            "objekt": "určení rozdílů představuje důležitý krok při zkoumání pramenů"
          },
          {
            "medium": "text",
            "objekt": "lépe si uvědomím, co je v pramenech důležité"
          }
        ]
      }
    }
  ]
}
