{
  "cviceni": {
    "version": {
      "global": "<%= version %>",
      "content": 1
    },
    "katalog": [
      "test",
      "public"
    ],
    "language": "sk",
    "slug": "preco-vznikol-skolsky-obraz-sk",
    "nazev": "Prečo vznikol školský obraz?",
    "autor": [
      "Kamil Činátl"
    ],
    "klicovaSlova": {
      "rvp": [
        "vznik ČSR",
        "vzdělání"
      ],
      "koncept": [
        "symboly"
      ],
      "b4": [
        "vztah k minulosti"
      ],
      "historylab": [
        "porovnáváme prameny"
      ]
    },
    "casovaOsa": {
      "roky": [
        1918
      ],
      "epochy": [
        {
          "refId": "czech",
          "obdobi": [
            "první Československá republika"
          ]
        },
        {
          "refId": "world",
          "obdobi": []
        }
      ],
      "show": false
    },
    "anotace": {
      "ucitel": "Cvičení se zaměřuje na zobrazení návratu prezidenta Masaryka do republiky v roce 1918. Žáci zkoumají školní obraz a dvě fotografie této události. Srovnávají způsob zobrazení a zaměřují se na symbolické významy spojené s postavou T. G. Masaryka. Kritická analýza obrazu problematizuje vztah mezi skutečností a vyobrazením. Žáci si uvědomují posuny v zobrazení a rozvíjejí svou vizuální gramotnost.",
      "verejna": "Masaryk tajne odcestoval z Rakúsko-Uhorska a vrátil sa do Československa slávnostne ako prezident. Príchod zachytil fotograf. Táto významná udalosť sa čoskoro dostala do školských osnov. Poďte sa dozvedieť ako!"
    },
    "trvani": 30,
    "obtiznost": "střední",
    "funkce": [
      "lupa",
      "text",
      "svg",
      "znacky"
    ],
    "pdf": {
      "doporucenyPostup": "preco-vznikol-skolsky-obraz-sk.pdf"
    },
    "uvodniObrazek": "preco-vznikol-skolsky-obraz-sk/pic-00-1024w.jpg",
    "id": 176,
    "color": {
      "rgb": {
        "r": 147,
        "g": 138,
        "b": 121
      },
      "hsv": {
        "h": 39,
        "s": 17.69,
        "v": 57.65
      }
    },
    "mobileData": {
      "mobileFriendly": 1,
      "touch": 2,
      "smallScreen": 1,
      "tabletScreen": 2
    }
  },
  "slajd": [
    {
      "zadani": {
        "hlavni": "Prezrite si fotografie.",
        "rozsirujici": ""
      },
      "napoveda": {
        "aktivity": [
          "lupa"
        ],
        "text": "Pri kliknutí ľavým tlačidlom do obrazu lupa priblíži časť obrazu vo výreze."
      },
      "prameny": [
        "preco-vznikol-skolsky-obraz-sk/pic-01-1024w.jpg",
        "preco-vznikol-skolsky-obraz-sk/pic-02-1024w.jpg"
      ],
      "popisky": [
        "Príchod T. G. Masaryka do vlasti, Horné Dvorisko, 20. decembra 1918. Zdroj: Múzeum T. G. Masaryka v Lánoch",
        "Príchod T. G. Masaryka do vlasti, Tábor, 21. decembra 1918. Zdroj: Múzeum T. G. Masaryka v Lánoch"
      ]
    },
    {
      "zadani": {
        "hlavni": "Na oboch fotografiách označte dôležité prvky a popíšte ich.",
        "rozsirujici": ""
      },
      "napoveda": {
        "aktivity": [
          "svg"
        ],
        "text": "Kliknutím na snímku ľavým tlačidlom myši označujete bod. Nakliknutím na bod pravým tlačidlom otvoríte menu s ponukou úkonov: zmeniť farbu bodu, (T) doplniť textový komentár, (X) zmazať nakliknutý objekt."
      },
      "svg": {
        "soubory": [
          {
            "id": "svg-1",
            "soubor": "preco-vznikol-skolsky-obraz-sk/pic-01-1024w.jpg",
            "funkce": [
              "text",
              "znacky"
            ]
          },
          {
            "id": "svg-2",
            "soubor": "preco-vznikol-skolsky-obraz-sk/pic-02-1024w.jpg",
            "funkce": [
              "text",
              "znacky"
            ]
          }
        ]
      },
      "popisky": [
        "Tomáš G. Masaryk pricestoval do Československa 20. decembra 1918 špeciálnym vlakom z Talianska. Sprevádzala ho dcéra Oľga ako aj významní predstavitelia spojencov mladého Československa: francúzsky vyslanec Clement Simon a taliansky generál Luigi Giussepe Piccione. V Hornom Dvořišti sa prezident stretol so svojím synom Janom. Prezidenta sprevádzal diplomat a legionár Jan Šeba a radoví príslušníci československých légií z Talianska a Francúzska. Prezident strávil noc v Českých Budějoviciach aby do Prahy pricestoval na druhý deň za svetla. V Tábore ho 21. decembra privítal primátor mesta Klos a prezident sa prihovoril zhromaždenému ľudu. Vlak potom zamieril do Prahy, kde sa konal hlavný uvítací ceremoniál, na ktorom sa zúčastnili státisíce ľudí."
      ]
    },
    {
      "zadani": {
        "hlavni": "Prezrite si obraz.",
        "rozsirujici": ""
      },
      "napoveda": {
        "aktivity": [
          "lupa"
        ],
        "text": "Pri kliknutí ľavým tlačidlom do obrazu lupa priblíži časť obrazu vo výreze."
      },
      "prameny": [
        "preco-vznikol-skolsky-obraz-sk/pic-00-1024w.jpg"
      ],
      "popisky": [
        "Václav Čutta: Prvý prezident Československej republiky T. G. Masaryk privítaný 21. decembra 1918 v Hornom Dvořišti na pôde oslobodenej vlasti [školský obraz]. Zdroj: Pedagogické múzeum Jána Amosa Komenského v Prahe"
      ]
    },
    {
      "class": [
        "half-slide-previous"
      ],
      "zadani": {
        "hlavni": "Porovnajte fotografie so školským obrazom.",
        "rozsirujici": "V obraze označte dôležité prvky, ktoré sa líšia od fotografií, a popíšte ich."
      },
      "napoveda": {
        "aktivity": [
          "svg"
        ],
        "text": "Kliknutím na snímku ľavým tlačidlom myši označujete bod. Nakliknutím na bod pravým tlačidlom otvoríte menu s ponukou úkonov: zmeniť farbu bodu, (T) doplniť textový komentár, (X) zmazať nakliknutý objekt."
      },
      "svg": {
        "nastaveni": {
          "layout": "velka-galerie"
        },
        "galerie": [
          {
            "typ": "svg",
            "objekt": {
              "id": "svg-3",
              "soubor": "preco-vznikol-skolsky-obraz-sk/pic-01-1024w.jpg",
              "duplikovat": [
                "svg-1"
              ]
            },
            "popiska": "Príchod T. G. Masaryka do vlasti, Horné Dvorisko, 20. decembra 1918. Zdroj: Múzeum T. G. Masaryka v Lánoch"
          },
          {
            "typ": "svg",
            "objekt": {
              "id": "svg-4",
              "soubor": "preco-vznikol-skolsky-obraz-sk/pic-02-1024w.jpg",
              "duplikovat": [
                "svg-2"
              ]
            },
            "popiska": "Príchod T. G. Masaryka do vlasti, Tábor, 21. decembra 1918. Zdroj: Múzeum T. G. Masaryka v Lánoch"
          }
        ],
        "soubory": [
          {
            "id": "svg-5",
            "soubor": "preco-vznikol-skolsky-obraz-sk/pic-00-1024w.jpg",
            "funkce": [
              "text",
              "znacky"
            ],
            "barvy": [
              "red"
            ]
          }
        ]
      }
    },
    {
      "class": [
        "half-slide-active"
      ],
      "zadani": {
        "hlavni": "Odpovedzte na otázky.",
        "rozsirujici": ""
      },
      "napoveda": {
        "aktivity": [
          "text"
        ],
        "text": "Do boxu pre text zapisujete odpoveď na otázku, alebo iný komentár (podľa zadania)."
      },
      "uzivatelskyText": {
        "otazky": [
          {
            "id": "otazka-1",
            "zadani": "Ako sa zmenilo vyznenie scény na školskom obraze?",
            "instrukce": "Myslím si, že…",
            "minDelka": 10,
            "maxDelka": 400
          },
          {
            "id": "otazka-2",
            "zadani": "K čomu sa obraz mohol využívať pri vyučovaní v škole?",
            "instrukce": "Myslím si, že…",
            "minDelka": 10,
            "maxDelka": 400
          }
        ]
      }
    }
  ]
}
