{
  "cviceni": {
    "version": {
      "global": "<%= version %>",
      "content": 2
    },
    "katalog": [
      "test",
      "public"
    ],
    "language": "cs",
    "slug": "co-chtel-zmenit-knize-bretislav",
    "nazev": "Co chtěl změnit kníže Břetislav?",
    "autor": [
      "Vojtěch Hájek",
      "Pavla Sýkorová"
    ],
    "klicovaSlova": {
      "rvp": [
        "gender",
        "náboženství"
      ],
      "koncept": [],
      "b4": [
        "trvání a změna"
      ],
      "historylab": [
        "sestavujeme podloženou odpověď"
      ],
      "obdobi": [
        "středověk"
      ]
    },
    "casovaOsa": {
      "roky": [
        1039
      ],
      "epochy": [
        {
          "refId": "czech",
          "obdobi": []
        },
        {
          "refId": "world",
          "obdobi": []
        }
      ],
      "show": false
    },
    "anotace": {
      "ucitel": "Cvičení dává nahlédnout do textu Břetislavových dektret. Žáci a žákyně pomocí analýzy a interpretace textu zjišťují, co chtěl kníže změnit, na jaké prohřešky upozorňoval a jak je chtěl trestat. Cvičení lze využít k představení období raného středověku jak po stránce právní, tak po stránce společenské.",
      "verejna": "Kníže vstal a ve stoje takto hovořil: „Chcete napraviti své zlé skutky a vrátiti se k rozumu?“ A oni se slzami odpověděli: „Jsme připraveni k nápravě“. Tu kníže pozdvihl pravici nad hrobem biskupovým a takto promluvil: „Pozdvihněte, bratří, společně pravice své v Pánu a naslouchejte mým slovům, která chci, abyste stvrdili přísahou na svou víru.“ Zajímá vás, jaká slova to byla? Co chtěl kníže změnit? Začtěte se do Břetislavových dekret a zjistěte to!"
    },
    "trvani": 20,
    "obtiznost": "střední",
    "funkce": [
      "lupa",
      "cteni",
      "text",
      "razeni",
      "text-editor",
      "pretahovani"
    ],
    "pdf": {
      "doporucenyPostup": "co-chtel-zmenit-knize-bretislav.pdf"
    },
    "uvodniObrazek": "co-chtel-zmenit-knize-bretislav/pic-00-1024h.jpg",
    "id": 220,
    "partners": [
      "gauk"
    ],
    "color": {
      "rgb": {
        "r": 220,
        "g": 205,
        "b": 189
      },
      "hsv": {
        "h": 31,
        "s": 14.09,
        "v": 86.27
      }
    },
    "mobileData": {
      "mobileFriendly": 0,
      "touch": 0,
      "smallScreen": 0,
      "tabletScreen": 0
    }
  },
  "slajd": [
    {
      "zadani": {
        "hlavni": "Přečtěte si zkrácený text Břetislavových dekret.",
        "rozsirujici": ""
      },
      "napoveda": {
        "aktivity": [
          "lupa",
          "cteni"
        ],
        "text": "Kliknutím levého tlačítka do obrazu a jeho podržením lupa přiblíží část obrazu ve výřezu."
      },
      "textovyEditor": {
        "nastaveni": {
          "layout": "velka-galerie"
        },
        "galerie": [
          {
            "soubor": "co-chtel-zmenit-knize-bretislav/pic-01-1024h.jpg",
            "popisek": ""
          },
          {
            "soubor": "co-chtel-zmenit-knize-bretislav/pic-02-1280w.jpg",
            "popisek": ""
          }
        ],
        "texty": [
          {
            "id": 1,
            "text": "text-00",
            "funkce": "cteni"
          }
        ]
      },
      "popisky": [
        "Dekreta knížete Břetislava jsou nejstarším písemně dochovaným zákonodárným dílem. Břetislav I. vyhlásil dekreta na své válečné výpravě do Polska v Hnězdně nad hrobem Vojtěcha roku 1039. Minulost našeho státu v dokumentech, Praha 1971, str. 31-32. Dekreta se dochovala v Kosmově kronice a v rukopisném kodexu ze 13. století, který je uložený v kapitulním archivu v Olomouci"
      ]
    },
    {
      "zadani": {
        "hlavni": "Jak rozumíte slovům v textu?",
        "rozsirujici": "Přečtěte si vysvětlení, prohlédněte obrázky a přiřaďte k nim slova z úvodního textu."
      },
      "napoveda": {
        "aktivity": [
          "razeni"
        ],
        "text": "Kliknutím na štítek a tahem myši přesuňte štítek na požadovanou pozici mezi ostatní položky."
      },
      "razeni": {
        "id": "razeni-1",
        "zpetnaVazba": [
          {
            "podminka": 1,
            "text": "Opravdu? My jsme přiřadili popisky jinak.",
            "barva": "color-red"
          },
          {
            "podminka": 0,
            "text": "Výtečně. Došli jsme ke stejným závěrům.",
            "barva": "color-green"
          }
        ],
        "typ": "horizontalni",
        "objekty": [
          {
            "medium": "text",
            "objekt": "boží soud",
            "spravnaOdpoved": "2"
          },
          {
            "medium": "text",
            "objekt": "krčma",
            "spravnaOdpoved": "4"
          },
          {
            "medium": "text",
            "objekt": "pokání",
            "spravnaOdpoved": "3"
          },
          {
            "medium": "text",
            "objekt": "denár",
            "spravnaOdpoved": "1"
          }
        ]
      },
      "popisky": [
        "je stříbrná mince. V roce 966 obchodník Ibrahim ibn Jakub popsal, že za jeden denár bylo možné koupit 10 slepic, množství pšenice pro člověka na jeden měsíc. Jeden otrok měl cenu 300, mladá otrokyně až 600 denárů.",
        "byl způsob, jak získat důkaz ve chvíli, kdy jich byl nedostatek. O vině a nevině (nebo o nepravdivém svědectví) rozhodovala zkouška, při níž se očekával boží zásah. Přijme voda svázaného člověka? Pokud ano, je nevinný.",
        "je symbolická činnost, kterou člověk dává najevo, že pochybil a že se snaží chybu napravit. Jindřich IV. putoval jako kajícník přes Alpy, aby si vyprosil u papeže zrušení klatby.",
        "je výraz pro hospodu. Ve středověkých hospodách se jedlo, pilo, uzavíraly se obchody, hráli se hry."
      ],
      "media": {
        "nastaveni": {
          "layout": "horizontalni"
        },
        "soubory": [
          {
            "soubor": "co-chtel-zmenit-knize-bretislav/pic-03-640w.jpg",
            "popisek": "mince z doby Vratislava II."
          },
          {
            "soubor": "co-chtel-zmenit-knize-bretislav/pic-04-640h.jpg",
            "popisek": "německý rukopis, kolem 1180"
          },
          {
            "soubor": "co-chtel-zmenit-knize-bretislav/pic-05-640h.jpg",
            "popisek": "miniatura Cesta do Canossy 1077, kolem 1115"
          },
          {
            "soubor": "co-chtel-zmenit-knize-bretislav/pic-06-1280w.jpg",
            "popisek": "olejomalba Jana Steena, 1653"
          }
        ]
      }
    },
    {
      "zadani": {
        "hlavni": "Co chtěl kníže Břetislav změnit?",
        "rozsirujici": "Vyznačte navrhované tresty."
      },
      "napoveda": {
        "aktivity": [
          "text-editor"
        ],
        "text": "Levým tlačítkem myši zabarvíte zvolené slovo nebo slovní spojení. Otevře se vám nabídka, v níž zvolíte označovanou kategorii. Křížkem lze označení smazat."
      },
      "textovyEditor": {
        "texty": [
          {
            "id": 2,
            "text": "text-00",
            "funkce": "zvyraznovani",
            "menu": [
              {
                "title": "trest",
                "commandName": "trest",
                "color": "red"
              }
            ]
          }
        ]
      },
      "popisky": [
        "Dekreta knížete Břetislava jsou nejstarším písemně dochovaným zákonodárným dílem. Břetislav I. vyhlásil dekreta na své válečné výpravě do Polska v Hnězdně nad hrobem Vojtěcha. Minulost našeho státu v dokumentech, Praha 1971, str. 31-32. Dekreta se dochovala v Kosmově kronice a v rukopisném kodexu ze 13. století, který je uložený v kapitulním archivu v Olomouci"
      ]
    },
    {
      "class": [
        "half-slide-previous"
      ],
      "zadani": {
        "hlavni": "Vyberte k navrhovaným trestům jednotlivá provinění.",
        "rozsirujici": ""
      },
      "napoveda": {
        "aktivity": [
          "analyticka-tabulka"
        ],
        "text": "Vyberte po jedné možnosti z rolovacích nabídek."
      },
      "novaTabulka": {
        "tabulky": [
          {
            "id": "nova-tabulka-1",
            "dataFrom": [
              "textovy-editor-2"
            ],
            "columns": [
              {
                "id": "trest",
                "name": "Vámi označené tresty",
                "type": {
                  "name": "dup-text",
                  "type": "tag"
                },
                "bg-color": "",
                "values": []
              },
              {
                "id": "osoba",
                "name": "Provinění",
                "type": {
                  "name": "select",
                  "options": [
                    "I. roztržka v manželství",
                    "II. neslušné chování muže k manželce",
                    "III. zabití člověka",
                    "IV. zřízení krčmy",
                    "V. pijáci přistižení v krčmě",
                    "VI. pohřbení mrtvého na pole, v lese"
                  ]
                },
                "bg-color": "",
                "values": []
              }
            ]
          }
        ]
      }
    },
    {
      "class": [
        "half-slide-active",
        "half-slide-previous"
      ],
      "zadani": {
        "hlavni": "Čeho chtěl kníže zákony docílit?",
        "rozsirujici": "Pomocí zvětšování a zmenšování štítků odstupňujte jeho záměry."
      },
      "napoveda": {
        "aktivity": [
          "word-cloud"
        ],
        "text": "Klikáním na znaménka -/+ zmenšujte či zdůrazňujte důležitost."
      },
      "klicovaSlova": {
        "klicovaSlova": [
          {
            "id": "klicova-slova-1",
            "funkce": "wordcloud",
            "tagy": [
              {
                "text": "podpora křesťanství"
              },
              {
                "text": "pohřbívání na hřbitovech"
              },
              {
                "text": "snížení alkoholismu"
              },
              {
                "text": "posílení své moci"
              },
              {
                "text": "podpora manželství"
              }
            ]
          }
        ]
      }
    },
    {
      "class": [
        "half-slide-active"
      ],
      "zadani": {
        "hlavni": "Odpovězte na otázky.",
        "rozsirujici": ""
      },
      "napoveda": {
        "aktivity": [
          "text"
        ],
        "text": "Do boxu pro text zapisujete odpověď na otázku, nebo jiný komentář (dle zadání)."
      },
      "uzivatelskyText": {
        "otazky": [
          {
            "id": "otazka-1",
            "zadani": "Co chtěl změnit kníže Břetislav?",
            "instrukce": "Myslím si, že…",
            "minDelka": 10,
            "maxDelka": 1000
          },
          {
            "id": "otazka-2",
            "zadani": "Které zákazy už dnes neřešíme a proč?",
            "instrukce": "Myslím si, že…",
            "minDelka": 10,
            "maxDelka": 1000
          }
        ]
      }
    }
  ]
}