{
  "cviceni": {
    "version": {
      "global": "<%= version %>",
      "content": 2
    },
    "katalog": [
      "test",
      "public"
    ],
    "language": "cs",
    "slug": "k-cemu-slouzil-stredoveky-hrad",
    "nazev": "K čemu sloužil středověký hrad?",
    "autor": [
      "Markéta Kupcová"
    ],
    "klicovaSlova": {
      "rvp": [
        "konflikty",
        "krajina a sídla"
      ],
      "koncept": [],
      "b4": [
        "příčiny a důsledky"
      ],
      "historylab": [
        "diskutujeme"
      ],
      "obdobi": [
        "středověk"
      ]
    },
    "casovaOsa": {
      "roky": [
        1264
      ],
      "epochy": [
        {
          "refId": "czech",
          "obdobi": []
        },
        {
          "refId": "world",
          "obdobi": []
        }
      ],
      "show": false
    },
    "anotace": {
      "ucitel": "Cvičení ukazuje jednu z hlavních funkcí hradu Bezděz. Žáci a žákyně na základě leteckých fotografií zkoumají jednotlivé prvky hradu a promýšlí, k čemu sloužily. Na základě své práce argumentují, podle čeho usuzují, že hrad měl obrannou funkci. Rovněž se zamýšlí nad funkcí hradů v současnosti. Cvičení lze využít při zkoumání středověké kultury a života.",
      "verejna": "Na místě dříve mohutných sídel už dnes stojí jen zdánlivě nezajímavé zříceniny. Pokud ale zachovalé části dobře prozkoumáte, mohou vám prozradit něco ze své minulosti. Dokážete podle rozvalin poznat, k čemu ve středověku sloužil královský hrad Bezděz?"
    },
    "trvani": 20,
    "obtiznost": "nízká",
    "funkce": [
      "lupa",
      "cteni",
      "text",
      "svg",
      "znacky"
    ],
    "pdf": {
      "doporucenyPostup": "k-cemu-slouzil-stredoveky-hrad.pdf"
    },
    "uvodniObrazek": "k-cemu-slouzil-stredoveky-hrad/pic-01-1280w.jpg",
    "id": 212,
    "partners": [
      "gauk"
    ],
    "color": {
      "rgb": {
        "r": 99,
        "g": 88,
        "b": 84
      },
      "hsv": {
        "h": 16,
        "s": 15.15,
        "v": 38.82
      }
    },
    "mobileData": {
      "mobileFriendly": 0,
      "touch": 0,
      "smallScreen": 0,
      "tabletScreen": 0
    }
  },
  "slajd": [
    {
      "zadani": {
        "hlavni": "Prohlédněte si hrad Bezděz.",
        "rozsirujici": ""
      },
      "napoveda": {
        "aktivity": [
          "lupa"
        ],
        "text": "Při kliknutí levým tlačítkem do obrazu lupa přiblíží část obrazu ve výřezu."
      },
      "prameny": [
        "k-cemu-slouzil-stredoveky-hrad/pic-01-1280w.jpg",
        "k-cemu-slouzil-stredoveky-hrad/pic-00-1280w.jpg"
      ],
      "popisky": [
        "Hrad Bezděz (pohled od severozápadu). Foto Jan Kolomazník, 2019. Zdroj: Mapy.cz",
        "Hrad Bezděz (pohled od jihozápadu). Foto Tomáš Tuček, 2018. Zdroj: Mapy.cz"
      ]
    },
    {
      "zadani": {
        "hlavni": "Označte důležité prvky na fotografii a popište je.",
        "rozsirujici": ""
      },
      "napoveda": {
        "aktivity": [
          "svg"
        ],
        "text": "Kliknutím na snímek levým tlačítkem myši označujete bod. Nakliknutím na bod pravým tlačítkem otevřete menu s nabídkou úkonů: změnit barvu bodu, (T) doplnit textový komentář, (X) smazat nakliknutý objekt."
      },
      "svg": {
        "soubory": [
          {
            "id": "svg-1",
            "soubor": "k-cemu-slouzil-stredoveky-hrad/pic-01-1280w.jpg",
            "funkce": [
              "text",
              "znacky"
            ],
            "barvy": []
          },
          {
            "id": "svg-2",
            "soubor": "k-cemu-slouzil-stredoveky-hrad/pic-00-1280w.jpg",
            "funkce": [
              "text",
              "znacky"
            ],
            "barvy": []
          }
        ]
      },
      "popisky": [
        "Hrad Bezděz (pohled od severozápadu). Foto Jan Kolomazník, 2019. Zdroj: Mapy.cz",
        "Hrad Bezděz (pohled od jihozápadu). Foto Tomáš Tuček, 2018. Zdroj: Mapy.cz"
      ]
    },
    {
      "class": "",
      "zadani": {
        "hlavni": "K čemu části hradu sloužily?",
        "rozsirujici": "Seřaďte popisky tak, aby odpovídaly pořadí obrázků."
      },
      "napoveda": {
        "aktivity": [
          "razeni"
        ],
        "text": "Kliknutím na štítek a tahem myši přesuňte štítek na požadovanou pozici mezi ostatní položky."
      },
      "razeni": {
        "id": "razeni-1",
        "zpetnaVazba": [
          {
            "podminka": 1,
            "text": "Opravdu? My jsme popisky přiřadili jinak.",
            "barva": "color-red"
          },
          {
            "podminka": 0,
            "text": "Výtečně. Došli jsme ke stejným závěrům.",
            "barva": "color-green"
          }
        ],
        "typ": "horizontalni",
        "objekty": [
          {
            "medium": "text",
            "objekt": "Hlavní obytná budova patřící majiteli hradu",
            "spravnaOdpoved": "3"
          },
          {
            "medium": "text",
            "objekt": "Poslední útočiště obránců v případě útoku",
            "spravnaOdpoved": "4"
          },
          {
            "medium": "text",
            "objekt": "Základní obranný prvek vymezující bráněný prostor",
            "spravnaOdpoved": "5"
          },
          {
            "medium": "text",
            "objekt": "Místo umožňující průchod obrannou linií do nitra opevnění",
            "spravnaOdpoved": "1"
          },
          {
            "medium": "text",
            "objekt": "Sem svolával zvon k modlitbě. Svou výzdobou ukazovala bohatství majitele",
            "spravnaOdpoved": "2"
          }
        ]
      },
      "media": {
        "nastaveni": {
          "layout": "horizontalni"
        },
        "soubory": [
          {
            "soubor": "k-cemu-slouzil-stredoveky-hrad/pic-02-1280w.jpg",
            "popisek": "brána"
          },
          {
            "soubor": "k-cemu-slouzil-stredoveky-hrad/pic-03-1024h.jpg",
            "popisek": "hradní kaple"
          },
          {
            "soubor": "k-cemu-slouzil-stredoveky-hrad/pic-04-1024h.jpg",
            "popisek": "palác"
          },
          {
            "soubor": "k-cemu-slouzil-stredoveky-hrad/pic-05-1024h.jpg",
            "popisek": "okrouhlá věž (bergfrit)"
          },
          {
            "soubor": "k-cemu-slouzil-stredoveky-hrad/pic-06-1280w.jpg",
            "popisek": "hradba"
          }
        ]
      }
    },
    {
      "class": [
        "half-slide-previous"
      ],
      "zadani": {
        "hlavni": "Ubránil by se hrad Bezděz, kdyby na něj někdo zaútočil?",
        "rozsirujici": "Zvětšete nebo zmenšete štítky s vybavením hradu podle toho, jak je podle vás důležité pro obranu před nepřáteli."
      },
      "napoveda": {
        "aktivity": [
          "tagy"
        ],
        "text": "Klikáním na znaménka -/+ zmenšujte či zdůrazňujte důležitost."
      },
      "klicovaSlova": {
        "layout": "velka-galerie",
        "galerie": [
          {
            "soubor": "k-cemu-slouzil-stredoveky-hrad/pic-01-1280w.jpg"
          },
          {
            "soubor": "k-cemu-slouzil-stredoveky-hrad/pic-00-1280w.jpg"
          }
        ],
        "klicovaSlova": [
          {
            "id": "klicova-slova-1",
            "funkce": "wordcloud",
            "tagy": [
              {
                "id": 1,
                "text": "poloha hradu na kopci"
              },
              {
                "id": 2,
                "text": "přístup k vodě"
              },
              {
                "id": 3,
                "text": "několik pásů hradeb"
              },
              {
                "id": 4,
                "text": "menší věž u brány"
              },
              {
                "id": 5,
                "text": "jedna přístupová cesta"
              }
            ]
          }
        ]
      }
    },
    {
      "class": [
        "half-slide-active"
      ],
      "zadani": {
        "hlavni": "K čemu sloužil středověký hrad?",
        "rozsirujici": ""
      },
      "napoveda": {
        "aktivity": [
          "text"
        ],
        "text": "Do boxu pro text zapisujete odpověď na otázku, nebo jiný komentář (dle zadání)."
      },
      "uzivatelskyText": {
        "otazky": [
          {
            "id": "otazka-1",
            "zadani": "Bezděz měl obrannou funkci. Souhlasíte? Proč ano? Proč ne?",
            "instrukce": "Myslím si, že…",
            "minDelka": 0,
            "maxDelka": 400
          },
          {
            "id": "otazka-2",
            "zadani": "Zkuste vymyslet, k čemu by mohly hrady sloužit dnes.",
            "instrukce": "Myslím si, že…",
            "minDelka": 0,
            "maxDelka": 400
          }
        ]
      }
    }
  ]
}