{
  "cviceni": {
    "version": {
      "global": "<%= version %>",
      "content": 1
    },
    "katalog": [
      "test",
      "public"
    ],
    "language": "pl",
    "slug": "co-zdarzylo-sie-w-volarach-pl",
    "nazev": "Co zdarzyło się w Volarach?",
    "autor": [
      "Petr Sedlák"
    ],
    "klicovaSlova": {
      "rvp": [
        "druga wojna światowa"
      ],
      "koncept": [],
      "b4": [
        "ówczesne perpektywy"
      ],
      "historylab": [
        "tworzymy"
      ]
    },
    "casovaOsa": {
      "roky": [
        1945
      ],
      "epochy": [
        {
          "refId": "czech",
          "obdobi": []
        },
        {
          "refId": "world",
          "obdobi": [
            "Druga wojna światowa"
          ]
        }
      ],
      "show": false
    },
    "anotace": {
      "ucitel": "Ćwiczenie przedstawia jeden z przypadków, w którym amerykańscy żołnierze zmusili niemiecką ludność cywilną do oglądania ofiar nazistowskiej polityki ludobójczej. Uczniowie wykorzystają wspomnienia świadka do napisania reportażu w gazecie o zdarzeniu. Ćwiczenie może otworzyć temat zasadności przypisywania odpowiedzialności zbiorowej i porównywania Niemców ze zbrodniami wojennymi nazistowskich Niemiec.",
      "verejna": "Niewątpliwie, zdjęcie pokazuje makabryczną scenę. Obok martwych ciał przechodzi orszak cywilów, a za nimi stoją żołnierze. Co się tutaj stało? Dlaczego tędy musieli ludzie przejść? Przestudiuj źródła i napisz artykuł do gazety o tym, co wydarzenie oznaczało dla uczestniczących w nim osób."
    },
    "trvani": 45,
    "obtiznost": "wysoki",
    "funkce": [
      "lupa",
      "text",
      "svg",
      "znacky",
      "cteni",
      "text-editor"
    ],
    "pdf": {
      "doporucenyPostup": "co-zdarzylo-sie-w-volarach-pl.pdf"
    },
    "uvodniObrazek": "co-zdarzylo-sie-w-volarach-pl/pic-01-1280w.jpg",
    "id": 204,
    "color": {
      "rgb": {
        "r": 138,
        "g": 138,
        "b": 136
      },
      "hsv": {
        "h": 60,
        "s": 1.45,
        "v": 54.12
      }
    },
    "mobileData": {
      "mobileFriendly": 1,
      "touch": 1,
      "smallScreen": 1,
      "tabletScreen": 2
    }
  },
  "slajd": [
    {
      "class": [
        "half-slide-previous"
      ],
      "zadani": {
        "hlavni": "Obejrzyj zdjęcie.",
        "rozsirujici": ""
      },
      "napoveda": {
        "aktivity": [
          "lupa"
        ],
        "text": "Po kliknięciu lewym przyciskiem myszy, otwiera się lupa."
      },
      "prameny": [
        "co-zdarzylo-sie-w-volarach-pl/pic-00-1024h.jpg"
      ],
      "zpetnaVazba": {
        "text": "Mám prohlédnuto!"
      },
      "popisky": [
        "Volary, między 9 a 11 maja 1945 r. Źródło: National Archives and Records Administration"
      ]
    },
    {
      "class": [
        "half-slide-active"
      ],
      "zadani": {
        "hlavni": "Jakie odczucia zdjęcie w Tobie wywołuje?",
        "rozsirujici": ""
      },
      "napoveda": {
        "aktivity": [
          "text"
        ],
        "text": "W polu tekstowym wpisz odpowiedź na pytanie lub inny komentarz (zgodnie z poleceniem)."
      },
      "uzivatelskyText": {
        "otazky": [
          {
            "id": "otazka-1",
            "zadani": "",
            "instrukce": "Odczuwam…",
            "minDelka": 10,
            "maxDelka": 999
          }
        ]
      }
    },
    {
      "class": [
        "half-slide-previous"
      ],
      "zadani": {
        "hlavni": "Oznacz grupy osób, które pomogą Ci stwierdzić, co dzieje się na zdjęciu i opisz je.",
        "rozsirujici": ""
      },
      "napoveda": {
        "aktivity": [
          "svg"
        ],
        "text": "Po kliknięciu, przesuwając lewym przyciskiem myszy, rysujesz do obrazu. Klikając w narysowany kształt prawym przyciskiem myszy otwierasz menu z ofertą poleceń: zmień kolor narysowanego kształtu, (T) dodaj tekst, (X) usuń obiekt."
      },
      "svg": {
        "soubory": [
          {
            "id": "svg-1",
            "soubor": "co-zdarzylo-sie-w-volarach-pl/pic-00-1024h.jpg",
            "funkce": [
              "text",
              "kresleni"
            ]
          }
        ]
      },
      "popisky": [
        "Volary, między 9 a 11 maja 1945 r. Źródło: National Archives and Records Administration"
      ]
    },
    {
      "class": [
        "half-slide-active"
      ],
      "zadani": {
        "hlavni": "Spisz pytania dotyczące sprawy.",
        "rozsirujici": ""
      },
      "napoveda": {
        "aktivity": [
          "text"
        ],
        "text": "W polu tekstowym wpisz odpowiedź na pytanie lub inny komentarz (zgodnie z poleceniem)."
      },
      "uzivatelskyText": {
        "otazky": [
          {
            "id": "otazka-2",
            "zadani": "Wyobraź sobie, że jesteś dziennikarzem i współpracownik przyniósł to zdjęcie do redakcji. Redaktor naczelny chce, abyś napisał do tego zdjęcia artykuł. Zapisz co najmniej trzy pytania, na które potrzebujesz znać odpowiedź.",
            "instrukce": "Muszę dowiedzieć się…",
            "minDelka": 10,
            "maxDelka": 999
          }
        ]
      }
    },
    {
      "zadani": {
        "hlavni": "Zbadaj inne źródła.",
        "rozsirujici": ""
      },
      "napoveda": {
        "aktivity": [
          "text"
        ],
        "text": "W polu tekstowym wpisz odpowiedź na pytanie lub inny komentarz (zgodnie z poleceniem)."
      },
      "uzivatelskyText": {
        "layout": "velka-galerie",
        "galerie": [
          {
            "soubor": "co-zdarzylo-sie-w-volarach-pl/pic-01-1280w.jpg",
            "popisek": "Obraz przedstawia pochówek 96 ofiar więźniarek obozów koncentracyjnych, które pod koniec wojny zostały przez niemieckich strażników zmuszone do marszu ewakuacyjnego przed nacierającą armią amerykańską. Ofiary zmarły z wycieńczenia i w wyniku brutalnego traktowania. Zostały pochowane w kilku masowych grobach w pobliżu Volar. Żołnierze amerykańscy po zajęciu miasteczka nakazali mieszkańcom ekshumację ciał ofiar i przeniesienie ich na miejscowy cmentarz. Inni mieszkańcy musieli na to patrzeć. Obraz Roberta Stubnera był przedrukowywany w maju 1945 roku na pocztówkach. Źródło: Jaroslava Kreisová: Přes Volary přešla smrt: pochod smrti očima pamětníků, Volary 2008."
          },
          {
            "soubor": "co-zdarzylo-sie-w-volarach-pl/video-00.mp4",
            "popisek": "Materiał wideo sporządzili żołnierze amerykańscy po zajęciu Volar w maju 1945 r. Źródło: The National Archives and Records Administration"
          },
          {
            "typ": "text",
            "objekt": "Żołnierze amerykańscy kazali niemieckim mieszkańcom Volar (stanowiącym większość w mieście w południowo-zachodnich Czechach aż do wysiedlenia w 1946 roku) konfrontować się ze zbrodniami swoich rodaków. Mieli poczuć odpowiedzialność, która dotyczyła, zdaniem żołnierzy, narodu niemieckiego jako całości (redakcyjnie poprawione).",
            "popisek": "Źródło: Carsten Gansel – Matthias Braun (Hg): Es geht um Erwin Strittmatter Vom Streit um die Errinerung (Göttingen 2012)"
          }
        ],
        "otazky": [
          {
            "id": "otazka-3",
            "zadani": "Jakie odpowiedzi znalazłeś/znalazłaś na swoje pytania?",
            "instrukce": "Stwierdziłem/stwierdziłam, że...",
            "minDelka": 10,
            "maxDelka": 800
          }
        ]
      }
    },
    {
      "class": [
        "half-slide-previous"
      ],
      "zadani": {
        "hlavni": "Co pamięta świadek?",
        "rozsirujici": "Udało Ci się zyskać zapis wspomnień Paula Praxla, który był naocznym świadkiem tego wydarzenia. Zaznacz kolorem zielonym odczucia, o których wspomina Paul. Zaznacz kolorem żółtym, jak oceniał rozkaz żołnierzy amerykańskich."
      },
      "napoveda": {
        "aktivity": [
          "text-editor"
        ],
        "text": "Lewym przyciskiem myszy pokolorujesz wybrane słowo lub frazę. Otworzy się menu, w którym możesz wybrać daną kategorię. Wybór można usunąć krzyżykiem."
      },
      "textovyEditor": {
        "galerie": [
          {
            "soubor": "co-zdarzylo-sie-w-volarach-pl/pic-02-1024h.jpg",
            "popisek": "Paul Praxl w wieku 15. lat w nowym miejscu zamieszkania w Waldkirchen w Bawarii, lato 1950 r. Źródło: archiwum Paula Praxla"
          }
        ],
        "texty": [
          {
            "id": 1,
            "text": "text-00",
            "funkce": "zvyraznovani",
            "menu": [
              {
                "title": "Odczucia",
                "commandName": "odczucia",
                "color": "green"
              },
              {
                "title": "Oceny",
                "commandName": "oceny",
                "color": "yellow"
              }
            ]
          }
        ]
      },
      "popisky": [
        "Tłumaczenie listu Paula Praxla do Petra Sedláka, 12 lipca 2020 r. (z języka niemieckiego). Źródło: archiwum autora"
      ]
    },
    {
      "class": [
        "half-slide-active"
      ],
      "zadani": {
        "hlavni": "Co wydarzyło się w miejscowości Volary?",
        "rozsirujici": "Przedstaw w swoim artykule opinię naocznego świadka. Czy mogło oglądanie ofiar zadziałać na niemiecką ludność cywilną w taki sposób, jak zamierzali żołnierze amerykańscy?"
      },
      "napoveda": {
        "aktivity": [
          "text"
        ],
        "text": "W polu tekstowym wpisz odpowiedź na pytanie lub inny komentarz (zgodnie z poleceniem)."
      },
      "uzivatelskyText": {
        "otazky": [
          {
            "id": "otazka-4",
            "zadani": "",
            "duplikovat": [
              "otazka-3"
            ],
            "instrukce": "",
            "minDelka": 10,
            "maxDelka": 800
          }
        ]
      }
    }
  ]
}